…
[1] 270545
> 
> #3.c
> nb_unique_ratings <- nrow(bxRating)
> print(nb_unique_ratings)# 1144612
[1] 1144612
> 
> #3.d
> freq_user_rating <- bxRating %>%
+   group_by(User.ID) %>%              
+   summarise(n = n()) %>%              
+   group_by(n) %>%                    
+   summarise(num_users = n())          
> print(freq_user_rating)
# A tibble: 674 × 2
       n num_users
   <int>     <int>
 1     1     58966
 2     2     12476
 3     3      6528
 4     4      4248
 5     5      3095
 6     6      2345
 7     7      1706
 8     8      1371
 9     9      1175
10    10      1049
# ℹ 664 more rows
# ℹ Use `print(n = ...)` to see more rows
> 
> #3.e
> 
> freq_book_rating <- bxRating %>%
+   group_by(ISBN) %>%               
+   summarise(n = n()) %>%             
+   group_by(n) %>%                     
+   summarise(num_books = n())          
> 
> print(freq_book_rating)
# A tibble: 330 × 2
       n num_books
   <int>     <int>
 1     1    196427
 2     2     59508
 3     3     25892
 4     4     14073
 5     5      8981
 6     6      6091
 7     7      4465
 8     8      3267
 9     9      2572
10    10      2143
# ℹ 320 more rows
# ℹ Use `print(n = ...)` to see more rows
…
